{
  "questions": [
    {
      "id": 1,
      "question": "Where did the Norse warriors want to go after they died?",
      "answer": "Valhalla"
    },
    {
      "id": 2,
      "Question": "Where did the Greek gods live?",
      "description": "Mount Olympus"
    }
  ]
}
