{
  "cards": [
    {
      "id": 1,
      "name": "Zeus",
      "Bravery": 10,
      "Wisdom": 100,
      "Strength": 200,
      "Ferocity": 8,
      "Fear Factor": 40,
      "description": "This is..."
    },
    {
      "id": 2,
      "name": "Odysseus",
      "Bravery": 30,
      "Wisdom": 56,
      "Strength": 65,
      "Ferocity": 10,
      "Fear Factor": 11,
      "description": "This is..."
    },
    {
      "id": 3,
      "name": "Minotaur",
      "Bravery": 12,
      "Wisdom": 25,
      "Strength": 138,
      "Ferocity": 18,
      "Fear Factor": 40,
      "description": "This is..."
    },
    {
      "id": 4,
      "name": "Heracles",
      "Bravery": 15,
      "Wisdom": 55,
      "Strength": 170,
      "Ferocity": 13,
      "Fear Factor": 22,
      "description": "This is..."
    },
    {
      "id": 5,
      "name": "Pegasus",
      "Bravery": 20,
      "Wisdom": 20,
      "Strength": 180,
      "Ferocity": 9,
      "Fear Factor": 37,
      "description": "This is..."
    },
    {
      "id": 6,
      "name": "Hermes",
      "Bravery": 18,
      "Wisdom": 84,
      "Strength": 100,
      "Ferocity": 6,
      "Fear Factor": 29,
      "description": "This is..."
    },
    {
      "id": 7,
      "name": "Aphrodite",
      "Bravery": 9,
      "Wisdom": 49,
      "Strength": 40,
      "Ferocity": 6,
      "Fear Factor": 2,
      "description": "This is..."
    },
    {
      "id": 8,
      "name": "Polyphemus",
      "Bravery": 8,
      "Wisdom": 18,
      "Strength": 140,
      "Ferocity": 15,
      "Fear Factor": 47,
      "description": "This is..."
    },
    {
      "id": 9,
      "name": "Icarus",
      "Bravery": 18,
      "Wisdom": 65,
      "Strength": 50,
      "Ferocity": 2,
      "Fear Factor": 9,
      "description": "This is..."
    },
    {
      "id": 10,
      "name": "Sisyphus",
      "Bravery": 9,
      "Wisdom": 80,
      "Strength": 40,
      "Ferocity": 3,
      "Fear Factor": 5,
      "description": "This is..."
    },
    {
      "id": 11,
      "name": "Graeae",
      "Bravery": 6,
      "Wisdom": 99,
      "Strength": 30,
      "Ferocity": 1,
      "Fear Factor": 40,
      "description": "This is..."
    },
    {
      "id": 12,
      "name": "Chimera",
      "Bravery": 5,
      "Wisdom": 10,
      "Strength": 140,
      "Ferocity": 20,
      "Fear Factor": 48,
      "description": "This is..."
    },
    {
      "id": 13,
      "name": "Medusa",
      "Bravery": 5,
      "Wisdom": 30,
      "Strength": 60,
      "Ferocity": 12,
      "Fear Factor": 50,
      "description": "This is..."
    },
    {
      "id": 14,
      "name": "Ariadne",
      "Bravery": 29,
      "Wisdom": 45,
      "Strength": 40,
      "Ferocity": 2,
      "Fear Factor": 3,
      "description": "This is..."
    },
    {
      "id": 15,
      "name": "Trojan Horse",
      "Bravery": 0,
      "Wisdom": 0,
      "Strength": 185,
      "Ferocity": 18,
      "Fear Factor": 29,
      "description": "This is..."
    },
    {
      "id": 16,
      "name": "Jason",
      "Bravery": 27,
      "Wisdom": 39,
      "Strength": 68,
      "Ferocity": 8,
      "Fear Factor": 9,
      "description": "This is..."
    },
    {
      "id": 17,
      "name": "Poseidon",
      "Bravery": 20,
      "Wisdom": 90,
      "Strength": 150,
      "Ferocity": 15,
      "Fear Factor": 30,
      "description": "This is..."
    },
    {
      "id": 18,
      "name": "Persues",
      "Bravery": 15,
      "Wisdom": 60,
      "Strength": 140,
      "Ferocity": 18,
      "Fear Factor": 14,
      "description": "This is..."
    }
  ]
}
